priceGrid	actions	capitals
0.09008615190338926	0.1955	494.902275920811
0.1801723038067785	0.25439999999999996	556.8550732895293
0.27025845571016777	0.2336	620.4714036141253
0.360344607613557	0.2626	655.8049026709248
0.45043075951694633	0.17509999999999998	726.5205903016519
0.5405169114203355	0.2126	774.611102477902
0.6306030633237247	0.2583	835.3104819947417
0.720689215227114	0.26880000000000004	846.2328155428036
0.8107753671305034	0.27349999999999997	895.6313197764969
0.9008615190338927	0.3329	947.3666780269726
0.9909476709372818	0.3259000000000001	978.4778258528886
1.081033822840671	0.34020000000000006	1021.8514205552254
1.1711199747440604	0.36660000000000004	1114.7417188379059
1.2612061266474495	0.3774	1165.7475007820155
1.3512922785508388	0.4056	1153.1857042220734
1.441378430454228	0.35729999999999995	1206.471286443915
1.5314645823576174	0.4427	1311.8452842846384
1.6215507342610067	0.41609999999999997	1290.461860482389
1.711636886164396	0.4023	1344.6580772785123
1.8017230380677853	0.5344	1432.4519896945014
1.8918091899711742	0.44329999999999997	1460.2970965778118
1.9818953418745635	0.4657	1469.5786430812136
2.071981493777953	0.4814	1561.9635859101502
2.162067645681342	0.4911	1568.1978837406618
2.2521537975847314	0.4645000000000001	1612.0282000003392
2.3422399494881208	0.5337	1691.1658803195326
2.43232610139151	0.49759999999999993	1718.2968832875786
2.522412253294899	0.5419999999999999	1719.777040709888
2.6124984051982887	0.46149999999999997	1769.0540176130712
2.7025845571016776	0.4820999999999999	1813.0880667010688
2.7926707090050673	0.4993	1957.3155110091932
2.882756860908456	0.5695	1944.3551285310275
2.972843012811845	0.5176999999999999	2033.3814445895428
3.062929164715235	0.5453999999999999	2061.5418244606626
3.1530153166186237	0.5580999999999999	2064.6550297557524
3.2431014685220134	0.6172	2140.2469989482356
3.3331876204254023	0.592	2156.240327542717
3.423273772328792	0.5591	2164.325204637615
3.513359924232181	0.5512	2240.671049132883
3.6034460761355707	0.5558	2293.0743160419065
3.6935322280389595	0.5696000000000001	2315.0967712548945
3.7836183799423484	0.5743	2393.267764033223
3.873704531845738	0.57	2427.021758207041
3.963790683749127	0.5715	2407.845245597685
4.053876835652517	0.6335	2550.3129818597504
4.143962987555906	0.5902000000000001	2624.701508519021
4.234049139459295	0.6263	2631.9710853443235
4.324135291362684	0.6088	2688.1214794766624
4.414221443266073	0.5841999999999999	2636.4780064188544
4.504307595169463	0.6111000000000001	2698.0607158141515
4.594393747072852	0.6294	2873.6755787756892
4.6844798989762415	0.6338	2874.640969392305
4.77456605087963	0.6515000000000001	2833.847401240926
4.86465220278302	0.6429	2973.6953489491066
4.954738354686409	0.6244000000000001	2980.1808890978305
5.044824506589798	0.6004	3051.4868081704667
5.134910658493187	0.6497999999999999	3026.949189166859
5.224996810396577	0.6645999999999997	3011.6167127698277
5.315082962299966	0.6613000000000001	3172.412470478566
5.405169114203355	0.6516000000000001	3112.5908007422204
5.495255266106744	0.6107	3233.3553695068117
5.585341418010135	0.6579	3293.259042781766
5.6754275699135235	0.6255999999999999	3285.821922139332
5.765513721816912	0.6692999999999999	3395.894424174047
5.855599873720301	0.6765000000000001	3444.0706974361315
5.94568602562369	0.6718	3491.0846134158164
6.035772177527081	0.6919999999999998	3515.1209974691606
6.12585832943047	0.6956999999999998	3596.8010501919402
6.2159444813338585	0.6781	3662.8355176319515
6.306030633237247	0.6481999999999999	3545.208752008702
6.396116785140638	0.68	3690.732408806227
6.486202937044027	0.6436999999999999	3642.6073772481745
6.576289088947416	0.6588999999999998	3736.9867171072124
6.666375240850805	0.6889	3916.2077015909254
6.756461392754193	0.6897	3847.538611862279
6.846547544657584	0.7099000000000001	4016.4261975990144
6.936633696560973	0.6833999999999999	3816.2336487420876
7.026719848464362	0.698	3837.520910364499
7.116806000367751	0.7364	4106.797052555523
7.206892152271141	0.7371999999999999	4137.1268991985835
7.29697830417453	0.7016999999999999	4113.618509489248
7.387064456077919	0.7437999999999999	4274.2419518357465
7.477150607981308	0.6945	4248.913307016754
7.567236759884697	0.7337	4428.357149144068
7.657322911788087	0.6892	4360.673851404141
7.747409063691476	0.6897000000000001	4342.735491430358
7.837495215594865	0.7460999999999999	4601.253217837884
7.927581367498254	0.7182000000000001	4530.693445079915
8.017667519401643	0.7271	4554.392045622328
8.107753671305034	0.7617	4645.652458112856
8.197839823208422	0.7613000000000001	4730.0499822636475
8.287925975111811	0.7663000000000001	4643.137866225229
8.3780121270152	0.7283999999999999	4917.252795257981
8.46809827891859	0.7376999999999999	4762.86674280109
8.55818443082198	0.7901	4892.13847215385
8.648270582725369	0.7561	4660.060111231907
8.738356734628757	0.7757	4961.071564641206
8.828442886532146	0.7403	4942.623754332176
8.918529038435537	0.801	5136.027460685689
9.008615190338926	0.7796000000000001	5262.182325765765
