priceGrid	actions	capitals
102.2265611611844	0.0	7792.009974290909
204.4531223223688	0.0	15924.006895094646
306.6796834835532	0.037599999999999995	23072.177094761417
408.9062446447376	0.037599999999999995	30223.03618017049
511.132805805922	0.12300000000000001	34775.430517758614
613.3593669671064	0.15239999999999998	46077.581055840354
715.5859281282908	0.1433	48735.82366089871
817.8124892894753	0.09699999999999999	52078.0139586223
920.0390504506596	0.17189999999999997	62428.71984125497
1022.265611611844	0.09620000000000001	61825.36687867634
1124.4921727730284	0.16269999999999998	76478.49319679923
1226.7187339342129	0.1073	73408.65480851982
1328.9452950953971	0.1261	76675.4544281047
1431.1718562565816	0.11630000000000001	76214.71398841488
1533.3984174177658	0.1444	69103.83624815164
1635.6249785789505	0.23349999999999999	92807.08056940297
1737.851539740135	0.3143	118783.28470193874
1840.0781009013192	0.21789999999999998	111096.7353936695
1942.3046620625037	0.2665	116792.24848090699
2044.531223223688	0.32130000000000003	126997.79657113073
2146.757784384872	0.34720000000000006	131346.00923207853
2248.984345546057	0.4207	150050.67942171177
2351.210906707241	0.30469999999999997	134730.50718512645
2453.4374678684258	0.2582	153913.02595748374
2555.66402902961	0.3434999999999999	172802.69628999365
2657.8905901907942	0.37199999999999994	162308.5662035461
2760.1171513519785	0.32549999999999996	164429.1013934863
2862.343712513163	0.2781	188448.18814790263
2964.5702736743474	0.3275	201479.2062074092
3066.7968348355316	0.3819000000000001	201061.93328403734
3169.0233959967168	0.2748	200050.4815328979
3271.249957157901	0.30419999999999997	197022.24472252413
3373.476518319085	0.4193999999999999	206784.4256053797
3475.70307948027	0.3488	207491.42329297803
3577.929640641454	0.44099999999999995	227445.5772529716
3680.1562018026384	0.3483	225879.75471693638
3782.382762963823	0.2611	208609.93163044937
3884.6093241250073	0.4291	250692.4752523217
3986.8358852861916	0.3231	248031.55189842754
4089.062446447376	0.3555	248175.39181438278
4191.2890076085605	0.3111	263516.24290691863
4293.515568769744	0.3909	277894.92273702775
4395.742129930929	0.3789	254175.9423023168
4497.968691092114	0.3874	268694.04043095204
4600.195252253298	0.39770000000000005	266099.81971294736
4702.421813414482	0.40549999999999997	269481.3318070296
4804.648374575667	0.3942	288951.30474139174
4906.8749357368515	0.3554	264989.2394778022
5009.101496898035	0.2983	278042.29043356475
5111.32805805922	0.4167	312941.27034299646
5213.554619220405	0.35150000000000003	288257.0969096065
5315.7811803815885	0.31220000000000003	315142.6855701094
5418.007741542773	0.36780000000000007	327611.3358834763
5520.234302703957	0.3673	349960.1192171885
5622.4608638651425	0.33099999999999996	327454.2800673398
5724.687425026326	0.36989999999999995	360840.3693803379
5826.913986187511	0.4236	395095.93219795445
5929.140547348695	0.43439999999999995	338745.0851133058
6031.3671085098795	0.4247000000000001	367381.5665199006
6133.593669671063	0.41050000000000003	375126.0158428785
6235.820230832249	0.36790000000000006	351877.4805815865
6338.0467919934335	0.5378999999999999	489515.7707231124
6440.273353154617	0.38130000000000003	331533.2123353247
6542.499914315802	0.44	421012.19484055036
6644.726475476986	0.4302	440393.4575563943
6746.95303663817	0.49560000000000004	407534.4037618646
6849.179597799354	0.40830000000000005	433966.08450364275
6951.40615896054	0.4235	415560.5817298871
7053.632720121724	0.4623	419357.57861597673
7155.859281282908	0.39399999999999996	413081.715999462
7258.085842444092	0.49260000000000004	501485.91057153867
7360.312403605277	0.39980000000000004	414812.84284412913
7462.538964766461	0.4681	441083.71631350776
7564.765525927646	0.4487	451678.383370291
7666.99208708883	0.4421	488819.21382473165
7769.218648250015	0.4482	469271.9546677299
7871.445209411198	0.46740000000000004	504243.92821793497
7973.671770572383	0.4745	452849.0965320928
8075.898331733567	0.42790000000000006	453658.0350257663
8178.124892894752	0.4536	552514.6295681264
8280.351454055937	0.4937	506550.0126798366
8382.578015217121	0.5079	552418.3816365836
8484.804576378305	0.4036	495654.09079170495
8587.031137539489	0.4518	520023.37320803
8689.257698700674	0.48480000000000006	559117.5900200388
8791.484259861858	0.44329999999999997	510313.8961797139
8893.710821023044	0.41269999999999996	547036.3183692694
8995.937382184227	0.4746	541679.5897914608
9098.163943345411	0.5266000000000001	568375.741186388
9200.390504506597	0.47850000000000004	549556.0684481802
9302.61706566778	0.45630000000000004	592219.0965711287
9404.843626828964	0.4942	592870.0755415775
9507.07018799015	0.5276	632582.6721372398
9609.296749151334	0.49219999999999997	604414.7131788481
9711.523310312517	0.5246	577328.2322433288
9813.749871473703	0.5434	650575.8152406333
9915.976432634887	0.5258	599572.2324495609
10018.20299379607	0.494	595086.3983645289
10120.429554957254	0.5026	660831.3535903266
10222.65611611844	0.5178	697441.1311821803
