priceGrid	actions	capitals
382.25975164453195	0.0	33060.98578541821
764.5195032890639	0.047599999999999996	80985.47606002536
1146.779254933596	0.11320000000000001	102280.50099432607
1529.0390065781278	0.237	162037.80951376914
1911.29875822266	0.24700000000000003	176559.61801980453
2293.558509867192	0.3381	244195.4728388706
2675.8182615117234	0.2889	242761.2825764094
3058.0780131562556	0.32760000000000006	285285.2731163437
3440.3377648007877	0.33120000000000005	289369.3296819652
3822.59751644532	0.19579999999999997	298672.9126763621
4204.8572680898515	0.3443	328110.3485568273
4587.117019734384	0.3292	368252.0497771888
4969.376771378916	0.27929999999999994	405268.9390707192
5351.636523023447	0.317	473344.6054412167
5733.896274667979	0.2589	456090.91103568947
6116.156026312511	0.34430000000000005	458172.70517593407
6498.415777957042	0.35440000000000005	429234.38033582794
6880.675529601575	0.4484	595676.0872619513
7262.935281246107	0.43090000000000006	549847.120988081
7645.19503289064	0.4681	586697.047784132
8027.454784535171	0.5095000000000001	651898.4155997604
8409.714536179703	0.45339999999999997	680847.9755355896
8791.974287824234	0.6163	757876.0729171457
9174.234039468767	0.49579999999999996	667110.6608899
9556.493791113298	0.6083	722368.269962787
9938.753542757831	0.4661	747348.9711879279
10321.013294402363	0.5558999999999998	850682.4964161628
10703.273046046894	0.554	905286.1871564463
11085.532797691427	0.5497000000000001	851370.1587668052
11467.792549335958	0.5971	979937.761123254
11850.05230098049	0.5801	1.0578427118921897e6
12232.312052625022	0.6543000000000001	953904.5199481249
12614.571804269555	0.6264	1.023012858039517e6
12996.831555914085	0.5916	1.0382718331653415e6
13379.091307558618	0.555	1.0089177631750912e6
13761.35105920315	0.6006	1.143178602724551e6
14143.61081084768	0.6192	1.1056122946650628e6
14525.870562492213	0.6048	1.1668463975222139e6
14908.130314136746	0.5978	1.1605977156625977e6
15290.39006578128	0.5708000000000001	1.1704382955618238e6
15672.649817425809	0.5677	1.2712777045799606e6
16054.909569070342	0.5912999999999999	1.2946336264246297e6
16437.169320714875	0.5896	1.2855238774035645e6
16819.429072359406	0.7183999999999999	1.365539402281384e6
17201.688824003937	0.6322	1.2886661212272658e6
17583.94857564847	0.5848	1.3539439055201376e6
17966.208327293	0.6181	1.3519160847069635e6
18348.468078937534	0.56	1.293192823119296e6
18730.727830582066	0.6460000000000001	1.4520446328148285e6
19112.987582226597	0.6415	1.4834376110015926e6
19495.247333871128	0.6470999999999999	1.5674025875861263e6
19877.507085515663	0.5988	1.5299175636419982e6
20259.76683716019	0.6756	1.5766972451395192e6
20642.026588804725	0.6418	1.4534688749877186e6
21024.286340449256	0.6345000000000001	1.7456543088036273e6
21406.546092093788	0.5843	1.6045968336676233e6
21788.805843738322	0.6034	1.7389689044562618e6
22171.065595382854	0.5641999999999999	1.5532588738650836e6
22553.32534702738	0.6022	1.5990616956403758e6
22935.585098671916	0.5932999999999999	1.620873308779013e6
23317.844850316447	0.6077999999999999	1.7467105837590245e6
23700.10460196098	0.6087	1.8555046067937945e6
24082.364353605513	0.5854	1.9197517866031535e6
24464.624105250045	0.5785	1.618236175532257e6
24846.883856894576	0.6127	1.9035739274566406e6
25229.14360853911	0.5648	1.8702434347050316e6
25611.403360183638	0.6635000000000001	2.0022786098491708e6
25993.66311182817	0.6093000000000001	1.9512871547482384e6
26375.922863472704	0.601	2.0201278807212105e6
26758.182615117235	0.5266000000000001	1.7344381662091229e6
27140.442366761767	0.6322	2.0864856994007744e6
27522.7021184063	0.5893	2.0811785191223219e6
27904.96187005083	0.5034	1.8709935642191095e6
28287.22162169536	0.6575	2.0662313741038952e6
28669.481373339895	0.5705	1.8804541599380753e6
29051.741124984426	0.5844	1.9917555410659364e6
29434.000876628957	0.6266999999999999	1.941972107270102e6
29816.260628273492	0.6063000000000001	2.2345237720226375e6
30198.520379918024	0.596	2.1270900873828363e6
30580.78013156256	0.6499000000000001	2.1750067837151703e6
30963.039883207086	0.6555	2.213489414147148e6
31345.299634851617	0.6009	2.2116503612891673e6
31727.559386496152	0.6496000000000001	2.294421601647427e6
32109.819138140683	0.6027	2.2254184327865066e6
32492.078889785214	0.581	2.1610909542827816e6
32874.33864142975	0.6798000000000001	2.2972557218459803e6
33256.59839307428	0.6292	2.2159780065265363e6
33638.85814471881	0.6161	2.510063332702455e6
34021.11789636334	0.6222000000000001	2.2544125452218144e6
34403.377648007874	0.6397999999999999	2.329963007594572e6
34785.637399652405	0.6311	2.4772106694896375e6
35167.89715129694	0.5949	2.4857930727316528e6
35550.15690294147	0.6315999999999999	2.5192188515835796e6
35932.416654586	0.6467	2.5593002512170933e6
36314.67640623054	0.594	2.5743208342218506e6
36696.93615787507	0.6416	2.720426962127811e6
37079.19590951959	0.6638000000000001	2.537850588963498e6
37461.45566116413	0.6056000000000001	2.6593126795118274e6
37843.71541280866	0.6441	2.815091601675448e6
38225.97516445319	0.6394000000000001	2.717577544716332e6
