priceGrid	actions	capitals
0.0	0.0	NaN
158.6701962384913	0.8199999999999998	63546.457971936965
317.3403924769826	0.8199999999999998	110975.81090185534
476.01058871547383	0.8199999999999998	156164.59750945662
634.6807849539651	0.8199999999999998	194824.28674867784
793.3509811924564	0.8199999999999998	227027.8616425499
952.0211774309477	0.8199999999999998	264782.83814500185
1110.691373669439	0.8199999999999998	301687.0960531395
1269.3615699079303	0.8199999999999998	335909.3636840627
1428.0317661464214	0.8199999999999998	371625.08186302974
1586.7019623849128	0.8199999999999998	401618.9014421782
1745.3721586234042	0.8199999999999998	448253.4550466705
1904.0423548618953	0.8199999999999998	480755.5915397802
2062.7125511003865	0.8199999999999998	527013.9404951064
2221.382747338878	0.8199999999999998	526557.4518731345
2380.052943577369	0.8199999999999998	549821.0046838728
2538.7231398158606	0.8199999999999998	612203.0061417979
2697.393336054352	0.8199999999999998	619184.6781638082
2856.063532292843	0.8199999999999998	650124.5587360978
3014.7337285313342	0.8199999999999998	705215.041812959
3173.4039247698256	0.8199999999999998	742470.4565877538
3332.074121008317	0.8199999999999998	752805.8505042327
3490.7443172468084	0.8199999999999998	792001.3040460066
3649.4145134852993	0.8199999999999998	825454.5145399085
3808.0847097237906	0.8199999999999998	846168.5449071124
3966.754905962282	0.8199999999999998	864876.8216705103
4125.425102200773	0.8199999999999998	901544.8475776024
4284.095298439264	0.8199999999999998	919128.8264978481
4442.765494677756	0.8199999999999998	971203.5759338284
4601.435690916247	0.8199999999999998	1.0017283070621182e6
4760.105887154738	0.8199999999999998	1.0124764487191731e6
4918.77608339323	0.8199999999999998	1.064415579156853e6
5077.446279631721	0.8199999999999998	1.0945541411974889e6
5236.1164758702125	0.8199999999999998	1.1117890979550541e6
5394.786672108704	0.8199999999999998	1.143301450945674e6
5553.456868347195	0.8199999999999998	1.1568140807754055e6
5712.127064585686	0.8199999999999998	1.14876332221212e6
5870.797260824177	0.8199999999999998	1.197230421111644e6
6029.4674570626685	0.8199999999999998	1.2249178089932995e6
6188.13765330116	0.8199999999999998	1.2475436620479291e6
6346.807849539651	0.8199999999999998	1.3053731212490203e6
6505.478045778143	0.8199999999999998	1.2903449443849062e6
6664.148242016634	0.8199999999999998	1.3322486117886729e6
6822.818438255125	0.8199999999999998	1.4051186915696012e6
6981.488634493617	0.8199999999999998	1.4034484810201705e6
7140.158830732107	0.8199999999999998	1.424454594857914e6
7298.8290269705985	0.8199999999999998	1.4174109881643432e6
7457.49922320909	0.8199999999999998	1.5389309243364886e6
7616.169419447581	0.8199999999999998	1.4873000362020973e6
7774.839615686073	0.8199999999999998	1.537896238273219e6
7933.509811924564	0.8199999999999998	1.585726012515715e6
8092.180008163055	0.8199999999999998	1.5441911025430628e6
8250.850204401546	0.8199999999999998	1.6162752145115098e6
8409.520400640038	0.8199999999999998	1.6359444000781295e6
8568.190596878529	0.8199999999999998	1.6844586528087389e6
8726.86079311702	0.8199999999999998	1.6713383625107398e6
8885.530989355511	0.8199999999999998	1.7393696692720393e6
9044.201185594004	0.8199999999999998	1.7012721899254005e6
9202.871381832494	0.8199999999999998	1.76978182568323e6
9361.541578070986	0.8199999999999998	1.7204251909613656e6
9520.211774309477	0.8199999999999998	1.8055639573099976e6
9678.881970547967	0.8199999999999998	1.8100693638426547e6
9837.55216678646	0.8199999999999998	1.8123223056652106e6
9996.22236302495	0.8199999999999998	1.8646332924913543e6
10154.892559263442	0.8199999999999998	1.92857962057501e6
10313.562755501933	0.8199999999999998	1.918096790577352e6
10472.232951740425	0.8199999999999998	1.9893085334896783e6
10630.903147978916	0.8199999999999998	1.9634543153609433e6
10789.573344217408	0.8199999999999998	1.9819824813409788e6
10948.243540455898	0.8199999999999998	2.0229703994030508e6
11106.91373669439	0.8199999999999998	1.9472635057306148e6
11265.583932932881	0.8199999999999998	2.050962247905409e6
11424.254129171371	0.8199999999999998	2.1196369719486255e6
11582.924325409864	0.8199999999999998	2.1478563827772187e6
11741.594521648354	0.8199999999999998	2.1215910229013087e6
11900.264717886846	0.8199999999999998	2.157178840059846e6
12058.934914125337	0.8199999999999998	2.214906202882932e6
12217.60511036383	0.8199999999999998	2.168292611567768e6
12376.27530660232	0.8199999999999998	2.2267904301465563e6
12534.945502840812	0.8199999999999998	2.2550146159417597e6
12693.615699079302	0.8199999999999998	2.2655071241714014e6
12852.285895317793	0.8199999999999998	2.234075640380169e6
13010.956091556285	0.8199999999999998	2.3033216745007937e6
13169.626287794776	0.8199999999999998	2.366963059296792e6
13328.296484033268	0.8199999999999998	2.424515161101558e6
13486.966680271758	0.8199999999999998	2.4107641872283537e6
13645.63687651025	0.8199999999999998	2.4614071135736774e6
13804.307072748741	0.8199999999999998	2.430636555309848e6
13962.977268987233	0.8199999999999998	2.569866820114939e6
14121.647465225724	0.8199999999999998	2.4786897593516232e6
14280.317661464214	0.8199999999999998	2.4946992293192768e6
14438.987857702707	0.8199999999999998	2.542279050596048e6
14597.658053941197	0.8199999999999998	2.6043547121148403e6
14756.32825017969	0.8199999999999998	2.5773895102387015e6
14914.99844641818	0.8199999999999998	2.511695541449161e6
15073.668642656672	0.8199999999999998	2.574749582534183e6
15232.338838895163	0.8199999999999998	2.7275220975063853e6
15391.009035133655	0.8199999999999998	2.6921904366330905e6
15549.679231372145	0.8199999999999998	2.768882813494398e6
15708.349427610638	0.8199999999999998	2.6848475559741985e6
